Name of Supply,Postcode,Longitude,Latitude,OS Grid Ref,Type of Water Use,Source
John Penny and Sons,LS19 6NU,53.848528,-1.6757304,SE214310 391920,Commercial/Large,Borehole
Goodall's Beech Grove Farm,LS14 3HG,53.850552,-1.4571406,SE354010 695910,Commercial/Large,Borehole
William Strikes Ltd,LS25 2AQ,53.78225,-1.3704547,SE416110 319480,Commercial/Large,Borehole
Scarcroft golf Club,LS14 3BQ,53.871858,-1.4503403,SE362390 418790,Commercial/Large,Borehole
Moor Valley Leisure Ltd,LS20 8PG,53.87047,-1.76614,SE154750 416100,Commercial/Large,Borehole
Chevin Country Park Hotel & Spa,LS21 3NU,53.89061,-1.6794066,SE211680 438730,Commercial/Large,Borehole
Greenside Farm,LS19 7DW,53.857496,-1.6921567,SE203460 401850,Commercial/Large,Borehole
Stubhouse Farm,LS17 9LF,53.896413,-1.533213,SE307750 445830,Commercial/Large,Borehole
Chevin Forest Park The White House,LS21 3JL,53.89679,-1.6953227,SE201190 445560,Commercial/Large,Spring
Hopewell Equestrian Centre,LS20 9NW,53.882556,-1.6859183,SE207440 429750,Commercial/Large,Borehole
Olicana Properties,LS21 1PH,53.900109,-1.5850987,SE273600 449620,Commercial/Large,Spring
Burden Head Farm,LS16 8AY,53.886775,-1.5610708,SE289930 435180,Commercial/Large,Borehole
Green Gaits Farm,LS18 5HY,53.878767,-1.6482535,SE232220 425650,Commercial,Borehole
Creskeld Hall / Creskeld House,LS21 1NT,53.894303,-1.6064597,SE 259600 443080,Commercial ,Spring
Woodbottom Farm,LS19 6JS,53.836685,-1.6701993,SE218010 378760,Commercial,Spring
Middlefield Farm,LS17 9LA,53.904903,-1.4901352,SE33596 45536,Commercial,Borehole
Carr Cottage,LS17 9LF,53.896413,-1.533213,SE307750 445830,Commercial,Well
